…
### Get an indicator

``` r
get_indicators(1:3)
#> # A tibble: 65 x 3
#>    id    key                 value                                              
#>    <chr> <chr>               <chr>                                              
#>  1 001   Código              "3.12.01"                                          
#>  2 001   Código SIARS        "2013.001.01"                                      
#>  3 001   Nome abreviado      "Proporção de consultas realizadas pelo MF"        
#>  4 001   Designação          "Proporção de consultas realizadas pelo respetivo …
#>  5 001   Objetivo            "Monitorizar o acesso dos utentes ao seu próprio m…
#>  6 001   Descrição do Indic… "Indicador que exprime a proporção de consultas qu…
#>  7 001   Regras de cálculo   "NUMERADOR (AA):\n\r Contagem de contactos em que …
#>  8 001   Observações Gerais  "A. Tanto no numerador como no denominador, apenas…
#>  9 001   Observações Sobre … "MEDICINEONE:\n\r A. Para que as consultas dos int…
#> 10 001   Período em Análise  "INDICADOR CALCULADO PELO MÉTODO DE \"PERÍODO EM A…
#> # … with 55 more rows
```
…
